Data Wrangling 2: Joins y reshape
…
```r
marco_rpae_tidy
```

```
## # A tibble: 2,951,220 x 9
##        rut nro_ine razon_social       depto year  ciiu4    mimp    po  vtas
##      <dbl>   <dbl> <chr>              <dbl> <chr> <dbl>   <dbl> <dbl> <dbl>
##  1   67347     859 Colegio Liceo Bea…    10 2011   8510 701207.  77.9     0
##  2   70340  190505 Raffo Puppo Teres…    NA 2011     NA     NA   NA      NA
##  3   73946  847387 Schandy Gabarda T…    10 2011     NA     NA   NA      NA
##  4 1004845  818971 Gerona Milans Bea…    10 2011     NA     NA   NA      NA
##  5 1007096       0 De Castro Morros …    10 2011     NA     NA   NA      NA
##  6 1007273  798452 Mosteiro Cousilla…    10 2011     NA     NA   NA      NA
##  7 1007528  709676 Sanjuan Martinez …    NA 2011     NA     NA   NA      NA
##  8 1012417  709678 Maestro Irigaray …    10 2011     NA     NA   NA      NA
##  9 1015555  709679 Cesar Cardoso Cam…    10 2011     NA     NA   NA      NA
## 10 1032308  798453 Goldschmidt Tresz…     9 2011     NA     NA   NA      NA
## # … with 2,951,210 more rows
```
